…
2.2.2 Create a new variable based on other variables in your data (only
if it makes sense)  
I want to know the average number of units per floor so that I can
compute the changes in average number of units per floor over the year.

``` r
apt_buildings_with_upf <- apt_buildings %>%
  drop_na(no_of_units, no_of_storeys) %>%
  mutate(avg_no_of_units_per_floor = floor(no_of_units / no_of_storeys))
apt_buildings_with_upf
```

    ## # A tibble: 3,455 × 38
    ##       id air_c…¹ ameni…² balco…³ barri…⁴ bike_…⁵ exter…⁶ fire_…⁷ garba…⁸ heati…⁹
    ##    <dbl> <chr>   <chr>   <chr>   <chr>   <chr>   <chr>   <chr>   <chr>   <chr>  
    ##  1 10359 NONE    Outdoo… YES     YES     0 indo… NO      YES     YES     HOT WA…
    ##  2 10360 NONE    Outdoo… YES     NO      0 indo… NO      YES     YES     HOT WA…
    ##  3 10361 NONE    <NA>    YES     NO      Not Av… NO      YES     NO      HOT WA…
    ##  4 10362 NONE    <NA>    YES     YES     Not Av… YES     YES     NO      HOT WA…
    ##  5 10363 NONE    <NA>    NO      NO      12 ind… NO      YES     NO      HOT WA…
    ##  6 10364 NONE    <NA>    NO      NO      Not Av… <NA>    YES     NO      HOT WA…
    ##  7 10365 NONE    <NA>    NO      YES     Not Av… NO      YES     NO      HOT WA…
    ##  8 10366 CENTRA… Indoor… YES     NO      Not Av… NO      YES     YES     HOT WA…
    ##  9 10367 NONE    <NA>    YES     YES     0 indo… NO      YES     YES     ELECTR…
    ## 10 10368 NONE    Indoor… YES     YES     Not Av… NO      YES     NO      HOT WA…
    ## # … with 3,445 more rows, 28 more variables: intercom <chr>,
    ## #   laundry_room <chr>, locker_or_storage_room <chr>, no_of_elevators <dbl>,
    ## #   parking_type <chr>, pets_allowed <chr>, prop_management_company_name <chr>,
    ## #   property_type <chr>, rsn <dbl>, separate_gas_meters <chr>,
    ## #   separate_hydro_meters <chr>, separate_water_meters <chr>,
    ## #   site_address <chr>, sprinkler_system <chr>, visitor_parking <chr>,
    ## #   ward <chr>, window_type <chr>, year_built <dbl>, year_registered <dbl>, …
…
``` r
filter(apt_buildings, year_built < 2000, no_of_storeys >= 10)
```

    ## # A tibble: 888 × 37
    ##       id air_c…¹ ameni…² balco…³ barri…⁴ bike_…⁵ exter…⁶ fire_…⁷ garba…⁸ heati…⁹
    ##    <dbl> <chr>   <chr>   <chr>   <chr>   <chr>   <chr>   <chr>   <chr>   <chr>  
    ##  1 10359 NONE    Outdoo… YES     YES     0 indo… NO      YES     YES     HOT WA…
    ##  2 10360 NONE    Outdoo… YES     NO      0 indo… NO      YES     YES     HOT WA…
    ##  3 10367 NONE    <NA>    YES     YES     0 indo… NO      YES     YES     ELECTR…
    ##  4 10375 NONE    <NA>    YES     YES     Not Av… YES     YES     YES     HOT WA…
    ##  5 10377 CENTRA… Indoor… YES     YES     Not Av… NO      YES     YES     HOT WA…
    ##  6 10379 NONE    <NA>    YES     NO      Not Av… YES     YES     YES     HOT WA…
    ##  7 10383 NONE    <NA>    YES     NO      Not Av… NO      YES     YES     HOT WA…
    ##  8 10384 NONE    <NA>    YES     YES     Not Av… YES     YES     YES     HOT WA…
    ##  9 10388 NONE    Outdoo… NO      YES     Not Av… NO      YES     NO      HOT WA…
    ## 10 10391 INDIVI… <NA>    YES     YES     75 ind… NO      YES     YES     HOT WA…
    ## # … with 878 more rows, 27 more variables: intercom <chr>, laundry_room <chr>,
    ## #   locker_or_storage_room <chr>, no_of_elevators <dbl>, parking_type <chr>,
    ## #   pets_allowed <chr>, prop_management_company_name <chr>,
    ## #   property_type <chr>, rsn <dbl>, separate_gas_meters <chr>,
    ## #   separate_hydro_meters <chr>, separate_water_meters <chr>,
    ## #   site_address <chr>, sprinkler_system <chr>, visitor_parking <chr>,
    ## #   ward <chr>, window_type <chr>, year_built <dbl>, year_registered <dbl>, …
…
``` r
apt_buildings_with_age <- apt_buildings_with_upf %>%
  drop_na(year_built) %>%
  filter(year_built >= 1990, year_built < 2020) %>%
  mutate(age =
           case_when(
             year_built < 2000 ~ "1990s",
             year_built < 2010 ~ "2000s",
             year_built >= 2010 ~ "2010s"))
apt_buildings_with_age
```

    ## # A tibble: 262 × 39
    ##       id air_c…¹ ameni…² balco…³ barri…⁴ bike_…⁵ exter…⁶ fire_…⁷ garba…⁸ heati…⁹
    ##    <dbl> <chr>   <chr>   <chr>   <chr>   <chr>   <chr>   <chr>   <chr>   <chr>  
    ##  1 10385 NONE    <NA>    YES     YES     Not Av… NO      YES     YES     FORCED…
    ##  2 10386 NONE    Indoor… YES     NO      12 ind… NO      YES     YES     HOT WA…
    ##  3 10389 NONE    <NA>    YES     YES     0 indo… NO      YES     NO      HOT WA…
    ##  4 10392 CENTRA… Indoor… YES     YES     71 ind… NO      YES     YES     HOT WA…
    ##  5 10426 CENTRA… Indoor… YES     YES     40 ind… NO      YES     YES     HOT WA…
    ##  6 10438 NONE    Indoor… NO      YES     Not Av… NO      YES     YES     HOT WA…
    ##  7 10444 NONE    <NA>    YES     YES     Not Av… NO      YES     NO      HOT WA…
    ##  8 10453 INDIVI… Indoor… YES     YES     Not Av… NO      YES     YES     ELECTR…
    ##  9 10470 NONE    Indoor… YES     YES     Not Av… NO      YES     YES     HOT WA…
    ## 10 10471 NONE    <NA>    YES     NO      0 indo… NO      YES     NO      ELECTR…
    ## # … with 252 more rows, 29 more variables: intercom <chr>, laundry_room <chr>,
    ## #   locker_or_storage_room <chr>, no_of_elevators <dbl>, parking_type <chr>,
    ## #   pets_allowed <chr>, prop_management_company_name <chr>,
    ## #   property_type <chr>, rsn <dbl>, separate_gas_meters <chr>,
    ## #   separate_hydro_meters <chr>, separate_water_meters <chr>,
    ## #   site_address <chr>, sprinkler_system <chr>, visitor_parking <chr>,
    ## #   ward <chr>, window_type <chr>, year_built <dbl>, year_registered <dbl>, …
…
